<?xml version="1.0" encoding="utf-8"?>
<!-- Generator: Adobe Illustrator 16.0.0, SVG Export Plug-In . SVG Version: 6.00 Build 0)  -->
<!DOCTYPE svg PUBLIC "-//W3C//DTD SVG 1.1//EN" "http://www.w3.org/Graphics/SVG/1.1/DTD/svg11.dtd">
<svg version="1.1" xmlns="http://www.w3.org/2000/svg" xmlns:xlink="http://www.w3.org/1999/xlink" x="0px" y="0px"
	 width="332.092px" height="58.836px" viewBox="0 0 332.092 58.836" enable-background="new 0 0 332.092 58.836"
	 xml:space="preserve">
<g id="Guides_For_Artboard">
</g>
<g id="Layer_1">
	<g>
		<g>
			<path fill="#00A895" d="M30.062,0.086C21.717-0.316,14.836,2.003,9.619,6.974C9.348,7.233,9.081,7.505,8.82,7.776V4.537
				c0-2.438-1.977-4.415-4.413-4.415C1.973,0.122,0,2.099,0,4.537v50.154c0,2.434,1.973,4.409,4.407,4.409
				c2.437,0,4.413-1.976,4.413-4.409V31.247c0-0.112,0.144-11.501,6.918-17.918c3.443-3.271,7.98-4.715,13.896-4.435
				c2.453,0.132,4.504-1.757,4.619-4.195C34.371,2.268,32.494,0.203,30.062,0.086z"/>
			<path fill="#00A895" d="M310.803,0c-0.919,0-9.137,0.117-15.102,5.951c-0.525,0.517-1.021,1.058-1.477,1.624
				C291.184,3.617,285.998,0,277.172,0c-0.777,0.009-6.9,0.091-12.39,3.76C264.465,1.635,262.637,0,260.424,0
				c-2.438,0-4.41,1.972-4.41,4.408v50.243c0,2.432,1.973,4.409,4.41,4.409s4.41-1.978,4.41-4.409V22.143
				c0-4.317,1.131-7.629,3.36-9.84c3.505-3.48,8.847-3.485,8.87-3.485h0.09c10.559,0,12.238,7.623,12.488,9.509v36.325
				c0,2.432,1.975,4.409,4.412,4.409c2.434,0,4.409-1.978,4.409-4.409V22.143c0-4.317,1.128-7.629,3.358-9.84
				c3.505-3.48,8.85-3.485,8.85-3.485h0.114c11.672,0,12.448,7.751,12.487,9.258v36.576c0,2.432,1.969,4.409,4.406,4.409
				s4.412-1.978,4.412-4.409V18.075C332.092,17.892,331.85,0.009,310.803,0z"/>
			<path fill="#00A895" d="M88.701,29.529C88.701,13.243,75.453,0,59.172,0C42.889,0,29.641,13.243,29.641,29.529
				c0,16.283,13.248,29.531,29.531,29.531c8.062,0,15.377-3.255,20.711-8.507v3.873c0,2.437,1.975,4.409,4.41,4.409
				c2.438,0,4.408-1.973,4.408-4.409V30.956c0-0.154-0.008-0.307-0.022-0.461C88.688,30.168,88.701,29.852,88.701,29.529z
				 M59.172,50.242c-11.42,0-20.711-9.293-20.711-20.713c0-11.418,9.291-20.712,20.711-20.712c11.422,0,20.711,9.294,20.711,20.712
				C79.883,40.949,70.594,50.242,59.172,50.242z"/>
			<path fill="#00A895" d="M160.975,59.061c-16.284,0-29.531-13.248-29.531-29.531C131.443,13.243,144.69,0,160.975,0
				c16.282,0,29.529,13.243,29.529,29.529C190.504,45.812,177.257,59.061,160.975,59.061z M160.975,8.817
				c-11.418,0-20.713,9.294-20.713,20.712c0,11.42,9.295,20.713,20.713,20.713c11.419,0,20.713-9.293,20.713-20.713
				C181.688,18.111,172.394,8.817,160.975,8.817z"/>
			<path fill="#00A895" d="M223.612,59.061c-16.28,0-29.528-13.248-29.528-29.531C194.084,13.243,207.332,0,223.612,0
				c16.285,0,29.533,13.243,29.533,29.529C253.146,45.812,239.897,59.061,223.612,59.061z M223.612,8.817
				c-11.417,0-20.706,9.294-20.706,20.712c0,11.42,9.289,20.713,20.706,20.713c11.425,0,20.715-9.293,20.715-20.713
				C244.327,18.111,235.037,8.817,223.612,8.817z"/>
			<path fill="#00A895" d="M128.604,58.836H98.4l-0.938-0.098c-2.01-0.434-4.694-1.987-5.645-4.915
				c-0.98-3.019,0.129-6.345,3.295-9.891c1.59-1.778,17.324-21.698,27.514-34.645l0.176-0.215c0.064-0.071,0.128-0.144,0.186-0.216
				H95.887c-2.434,0-4.41-1.971-4.41-4.408c0-2.432,1.977-4.409,4.41-4.409h30.203l0.936,0.103c2.012,0.439,4.697,1.987,5.648,4.914
				c0.971,2.989-0.105,6.279-3.196,9.78c-2.971,3.774-25.524,32.437-27.788,34.971c-0.068,0.072-0.129,0.143-0.189,0.215h27.104
				c2.438,0,4.41,1.973,4.41,4.409S131.041,58.836,128.604,58.836z"/>
		</g>
	</g>
</g>
</svg>
